5 Next-level Data Visualization – Intermediate R
…
birds$Date.Detected = mdy(birds$Date.Detected)
birds = mutate(birds, across(-Date.Detected, factor))

Tip

Specifying appropriate data types when you read data often provides performance benefits, but doing data type conversions later gives you more flexibility to clean the data first. So which approach you should use in any given situation depends on the data set and your analysis goals.

What kind of plot is appropriate for this dataset? Note that there are several dates where more than one bird was collected:

arrange(count(birds, Date.Detected), desc(n))

# A tibble: 248 × 2
   Date.Detected     n
   <date>        <int>
 1 2022-10-25      366
 2 2022-11-21      148
 3 2022-09-13      129
 4 2022-09-23      128
 5 2022-02-16      109
 6 2022-12-20       96
 7 2022-11-16       89
 8 2023-01-04       88
 9 2022-12-06       86
10 2022-10-07       81
# ℹ 238 more rows
…
